…
    filter, lag

The following objects are masked from 'package:base':

    intersect, setdiff, setequal, union

Loading required package: future
Warning messages:
1: replacing previous import 'data.table::first' by 'dplyr::first' when loading 'flualign' 
2: replacing previous import 'data.table::between' by 'dplyr::between' when loading 'flualign' 
3: replacing previous import 'data.table::last' by 'dplyr::last' when loading 'flualign' 
4: replacing previous import 'ggplot2::last_plot' by 'plotly::last_plot' when loading 'flualign' 
5: replacing previous import 'data.table::transpose' by 'purrr::transpose' when loading 'flualign' 
New low-temp grid: 36 specs
# A tibble: 36 × 4
   k_ref multi_temperature template_shift align_rise_weight
   <int>             <dbl>          <int>             <dbl>
 1    20              0.05             -1                 1
 2    25              0.05             -1                 1
 3    30              0.05             -1                 1
 4    20              0.1              -1                 1
 5    25              0.1              -1                 1
 6    30              0.1              -1                 1
 7    20              0.15             -1                 1
 8    25              0.15             -1                 1
 9    30              0.15             -1                 1
10    20              0.2              -1                 1
# ℹ 26 more rows
…
    filter, lag

The following objects are masked from 'package:base':

    intersect, setdiff, setequal, union

Loading required package: future
Warning messages:
1: replacing previous import 'data.table::first' by 'dplyr::first' when loading 'flualign' 
2: replacing previous import 'data.table::between' by 'dplyr::between' when loading 'flualign' 
3: replacing previous import 'data.table::last' by 'dplyr::last' when loading 'flualign' 
4: replacing previous import 'ggplot2::last_plot' by 'plotly::last_plot' when loading 'flualign' 
5: replacing previous import 'data.table::transpose' by 'purrr::transpose' when loading 'flualign' 
New low-temp grid: 36 specs
# A tibble: 36 × 4
   k_ref multi_temperature template_shift align_rise_weight
   <int>             <dbl>          <int>             <dbl>
 1    20              0.05             -1                 1
 2    25              0.05             -1                 1
 3    30              0.05             -1                 1
 4    20              0.1              -1                 1
 5    25              0.1              -1                 1
 6    30              0.1              -1                 1
 7    20              0.15             -1                 1
 8    25              0.15             -1                 1
 9    30              0.15             -1                 1
10    20              0.2              -1                 1
# ℹ 26 more rows
…
