…
    filter, lag

The following objects are masked from 'package:base':

    intersect, setdiff, setequal, union

Loading required package: future
Warning messages:
1: replacing previous import 'data.table::first' by 'dplyr::first' when loading 'flualign' 
2: replacing previous import 'data.table::between' by 'dplyr::between' when loading 'flualign' 
3: replacing previous import 'data.table::last' by 'dplyr::last' when loading 'flualign' 
4: replacing previous import 'ggplot2::last_plot' by 'plotly::last_plot' when loading 'flualign' 
5: replacing previous import 'data.table::transpose' by 'purrr::transpose' when loading 'flualign' 
Loaded existing grid: 81 specs
# A tibble: 81 × 3
   k_ref multi_temperature template_shift
   <int>             <dbl>          <int>
 1    15               0.5             -1
 2    20               0.5             -1
 3    25               0.5             -1
 4    15               1               -1
 5    20               1               -1
 6    25               1               -1
 7    15               2               -1
 8    20               2               -1
 9    25               2               -1
10    15               0.5              0
# ℹ 71 more rows
Extended grid: 48 specs
New specs to compute: 36 (out of 48 extended)
# A tibble: 36 × 4
   k_ref multi_temperature template_shift align_rise_weight
   <dbl>             <dbl>          <int>             <dbl>
 1    20              0.25             -2                 1
 2    25              0.25             -2                 1
 3    30              0.25             -2                 1
 4    35              0.25             -2                 1
 5    20              0.5              -2                 1
 6    25              0.5              -2                 1
 7    30              0.5              -2                 1
 8    35              0.5              -2                 1
 9    20              1                -2                 1
10    25              1                -2                 1
# ℹ 26 more rows
…
